module gitlab.com/merintisindonesia/membership-backend

go 1.16

// +heroku goVersion go1.16

require (
	github.com/dgrijalva/jwt-go v3.2.0+incompatible
	github.com/gin-contrib/cors v1.3.1
	github.com/gin-gonic/gin v1.7.4
	github.com/go-playground/validator/v10 v10.9.0 // indirect
	github.com/golang/protobuf v1.5.2 // indirect
	github.com/google/uuid v1.3.0
	github.com/joho/godotenv v1.3.0
	github.com/json-iterator/go v1.1.11 // indirect
	github.com/mattn/go-isatty v0.0.13 // indirect
	github.com/modern-go/concurrent v0.0.0-20180306012644-bacd9c7ef1dd // indirect
	github.com/modern-go/reflect2 v1.0.1 // indirect
	github.com/ugorji/go v1.2.6 // indirect
	github.com/veritrans/go-midtrans v0.0.0-20210616100512-16326c5eeb00 // indirect
	golang.org/x/crypto v0.0.0-20210817164053-32db794688a5
	golang.org/x/sys v0.0.0-20210820121016-41cdb8703e55 // indirect
	golang.org/x/text v0.3.7 // indirect
	google.golang.org/protobuf v1.27.1 // indirect
	gopkg.in/alexcesaro/quotedprintable.v3 v3.0.0-20150716171945-2caba252f4dc // indirect
	gopkg.in/gomail.v2 v2.0.0-20160411212932-81ebce5c23df // indirect
	gopkg.in/yaml.v2 v2.4.0 // indirect
	gorm.io/driver/mysql v1.1.2
	gorm.io/gorm v1.21.13
)
