[
    {
        "id": "6e170f08-dcb8-40fb-a7f2-26bc699638ee",
        "membership_type_id": 2,
        "question": "Who was responsible for a 1947 landmark report entitled 'A Free and Responsible Press' on the state of the press in the U.S.?",
        "choice": [
            "Knight Commission",
            "Warren Commission",
            "Wright Commission",
            "Ali Commission",
            "Hutchins Commission"
        ],
        "correct_answer": "Ali Commission",
        "created_at": "2021-08-22T10:23:43.551+07:00"
    },
    {
        "id": "2af303b4-3e51-41ef-a3a1-3c716fdde4b0",
        "membership_type_id": 2,
        "question": "Which of the following is NOT a fundamental area of change regarding people's media habits?",
        "choice": [
            "conversation",
            "curation",
            "communication",
            "choice",
            "collaboration"
        ],
        "correct_answer": "choice",
        "created_at": "2021-08-22T10:23:43.527+07:00"
    },
    {
        "id": "a9790ad5-c751-4657-a74c-86fc45fe50b6",
        "membership_type_id": 2,
        "question": "Which journalism style takes a voice oppositional to the status quo of government or business?",
        "choice": [
            "Advocacy journalism",
            "Literary journalism",
            "None of the above",
            "Public Journalism",
            "Alternative journalism"
        ],
        "correct_answer": "None of the above",
        "created_at": "2021-08-22T10:23:43.559+07:00"
    },
    {
        "id": "8785f2ea-440c-413e-9a28-74054f5403de",
        "membership_type_id": 2,
        "question": "Creating a website or group that looks like it originated from concerned grassroots efforts of citizens is known as",
        "choice": [
            "lurking",
            "puppeting",
            "astroturfing",
            "phishing",
            "trolling"
        ],
        "correct_answer": "phishing",
        "created_at": "2021-08-22T10:23:43.536+07:00"
    },
    {
        "id": "382f0e61-460a-4424-9b88-0fb71e5edbe1",
        "membership_type_id": 2,
        "question": "Today the most popular social networking site is",
        "choice": [
            "MySpace",
            "Line",
            "Facebook",
            "Weibo",
            "Twitter"
        ],
        "correct_answer": "Facebook",
        "created_at": "2021-08-22T10:23:43.492+07:00"
    },
    {
        "id": "a1563287-7ae0-4bda-bbd9-124f32ae97b9",
        "membership_type_id": 2,
        "question": "A portable chunk of code that can be embedded in Web pages to give extra functionality is known as a",
        "choice": [
            "folksonomy",
            "listserv",
            "wiki",
            "curator",
            "widget"
        ],
        "correct_answer": "curator",
        "created_at": "2021-08-22T10:23:43.484+07:00"
    },
    {
        "id": "aa29b231-5a5d-4962-a673-ae761e9a640d",
        "membership_type_id": 2,
        "question": "How could the future of the news business best be summed up in 2013?",
        "choice": [
            "Journalists and staff are being laid off",
            "News bureaus have shut down",
            "N0ne of the above",
            "All of the above",
            "Newspapers have lost advertising revenues"
        ],
        "correct_answer": "Newspapers have lost advertising revenues",
        "created_at": "2021-08-22T10:23:43.566+07:00"
    },
    {
        "id": "d0639bc3-2779-40e6-95bd-9d0663960b8f",
        "membership_type_id": 2,
        "question": " Which journalist set the standard for television journalism in the late 1940s and early 1950s with powerful documentaries and coverage?",
        "choice": [
            "Edward R. Murrow",
            "Nelly Bly",
            "None of the above",
            "Walter Cronkite",
            "Walter Lippmann"
        ],
        "correct_answer": "Edward R. Murrow",
        "created_at": "2021-08-22T10:23:43.501+07:00"
    },
    {
        "id": "5e47f6c5-993d-49c1-b5d9-45cc62ba1a36",
        "membership_type_id": 2,
        "question": "Which journalism style takes a voice oppositional to the status quo of government or business?",
        "choice": [
            "Alternative journalism",
            "None of the above",
            "Public Journalism",
            "Advocacy journalism",
            "Literary journalism"
        ],
        "correct_answer": "None of the above",
        "created_at": "2021-08-22T10:23:43.518+07:00"
    },
    {
        "id": "e68022c5-29ad-436c-a2c2-012e8f447ab8",
        "membership_type_id": 2,
        "question": "Electronic news gathering (ENG) equipment changed",
        "choice": [
            "How news was presented.",
            "How fast news was delivered.",
            "None of the above",
            "All of the above",
            "How news was gathered."
        ],
        "correct_answer": "How news was presented.",
        "created_at": "2021-08-22T10:23:43.548+07:00"
    },
    {
        "id": "baa37722-854d-4e49-bdab-c5e1e2dcdfbd",
        "membership_type_id": 2,
        "question": "Influence exerted by journalists' choice of news coverage that affects what people discuss is known as",
        "choice": [
            "pseudo-events",
            "agenda-setting",
            "gatekeeping",
            "yellow journalism",
            "two-step influence model"
        ],
        "correct_answer": "pseudo-events",
        "created_at": "2021-08-22T10:23:43.516+07:00"
    },
    {
        "id": "e8ced480-721b-460f-a322-df4a6fde8d68",
        "membership_type_id": 2,
        "question": "Two increasingly important ethical aspects of social media are",
        "choice": [
            "identity and honesty",
            "transparency and privacy",
            "politeness and civility",
            "virtue and virality",
            "ratings and traffic"
        ],
        "correct_answer": "ratings and traffic",
        "created_at": "2021-08-22T10:23:43.539+07:00"
    },
    {
        "id": "eed9b9c0-0457-4e5d-bf88-58e498b98605",
        "membership_type_id": 2,
        "question": "Which of the following are primary functions of journalism in society?",
        "choice": [
            "All of the above",
            "Correlation",
            "Cultural transmission",
            "None of the above",
            "Surveillance"
        ],
        "correct_answer": "Correlation",
        "created_at": "2021-08-22T10:23:43.543+07:00"
    },
    {
        "id": "246f25c7-5438-4cd6-9711-d50ff821ebc1",
        "membership_type_id": 2,
        "question": " Which journalist set the standard for television journalism in the late 1940s and early 1950s with powerful documentaries and coverage?",
        "choice": [
            "Walter Lippmann",
            "None of the above",
            "Walter Cronkite",
            "Edward R. Murrow",
            "Nelly Bly"
        ],
        "correct_answer": "Edward R. Murrow",
        "created_at": "2021-08-22T10:23:43.545+07:00"
    }
]