[
  {
    "title" : "Business 101: Learn How to Start Your Business",
    "description" : {
      "Pembicara" : "Bobby Wibowo (CEO Maesa Group)",
      "Topik" : [
        "Cara melihat peluang bisnis",
        "Ide bisnis untuk anak muda",
        "Berbagi pengalaman seputar bisnis"
        ]
    },
    "image_url": "https://membership-merintisindonesia.herokuapp.com/images/business_101.jpeg",
    "video_url": "https://youtu.be/5MirYjKHzAM"
  },
  {
    "title" : "Mau Jadi Pengusaha Muda Yang Sukses? Ini Kunci Karakteristiknya!",
    "description" : {
      "Pembicara" : "Titik Rusmiati (COO Femalepreneur Indonesia)",
      "Topik" : [
        "Membentuk sebuah karakter pengusaha muda sukses",
        "Cara dan faktor pendukung dalam membentuk karakter pengusaha",
        "Resiko bisnis yang dapat diminimalisir dengan adanya karakter tersebut",
        "Peluang dari karakter tersebut yang bisa meningkatkan kualitas bisnis"
        ]
    },
    "image_url": "https://membership-merintisindonesia.herokuapp.com/images/mau_jadi_pengusaha_muda.jpeg",
    "video_url": "https://youtu.be/L0DvN6jY8vI"
  },
  {
    "title" : "Business Starterpack 101: Mengubah Masalah Jadi Peluang Ide Bisnis Potensial",
    "description" : {
      "Pembicara" : "Rizka Alfiana (Founder D'Batik)",
      "Topik" : [
        "Menemukan ide bisnis dari masalah sekitar",
        "Merancang validasi ide bisnis beserta impactnya",
        "Mengetahui proses pencarian ide yang efektif dan efisien",
        "Menemukan value ide bisnis sebelum merancang business plan",
        "Membaca trend pasar bisnis anak muda yang suistainable"
        ]
    },
    "image_url": "https://membership-merintisindonesia.herokuapp.com/images/business_starter_pack_101.jpeg",
    "video_url": "https://youtu.be/16SKd3kYK4s"
  },
  {
    "title" : "Business Strategy 101: Menjalin Relasi Untuk Strategi Pengembangan Bisnis",
    "description" : {
      "Pembicara" : "Abdul Latif (Founder Kepul.id)",
      "Topik" : [
        "Mengetahui strategi membangun relasi bisnis",
        "Membangun company branding untuk partnership",
        "Menyusun kolaborasi bisnis untuk memperluas pasar",
        "Meningkatkan persona bisnis untuk menjalin network global",
        "Strategi meningkatkan circle relasi untuk pengembanga bisnis"
        ]
    },
    "image_url": "https://membership-merintisindonesia.herokuapp.com/images/business_strategy_101.jpeg",
    "video_url": "https://youtu.be/IJvkVHL0SRU"
  },
  {
    "title" : "Business Plan 101: Merancang Business Plan Pemula Ala Wirausaha Muda",
    "description" : {
      "Pembicara" : "Rigel Pawello (Founder Tokowadah)",
      "Topik" : [
        "Mengetahui fundamental business plan",
        "Mengetahui manfaat dan proses perancangan business plan menggunakan Business Model Canvas",
        "Menyusun business plan potensial untuk kebutuhan profesional ",
        "Menemukan inovasi bisnis untuk memperkuat value business plan"
        ]
    },
    "image_url": "https://membership-merintisindonesia.herokuapp.com/images/business_plan_101.jpeg",
    "video_url": "https://youtu.be/XKWnWLQ25ZI"
  },
  {
    "title" : "Business Talk 101: Menemukan Value-Added Bisnis di Sektor Pasar Panas",
    "description" : {
      "Pembicara" : "Muhammad Adriansa (CEO Mulai Disini)",
      "Topik" : [
        "Mengetahui bagaimana value-added penting untuk bisnis",
        "Menganalisa kompetitor di pasar panas untuk menemukan inovasi",
        "Menciptakan strategi deferensiasi produk maupun layanan yang berbeda dengan kompetitor",
        "Strategi memperkuat branding bisnis untuk tetap survive di pasar panas"
        ]
    },
    "image_url": "https://membership-merintisindonesia.herokuapp.com/images/business_talk_101.jpeg",
    "video_url": "https://youtu.be/g_pCUAIapfs"
  },
  {
    "title" : "Digital Marketing 101: Merumuskan Strategi Go-To-Market dalam Bisnis",
    "description" : {
      "Pembicara" : "Emmy Surya (CEO Femalepreneur Indonesia)",
      "Topik" : [
        "Pengenalan fundamental digital marketing dalam bisnis",
        "Mengetahui dan menentukan strategi go-to-market yang tepat",
        "Pengenalan tools yang bisa digunakan dalam eksekusi strategi",
        "Mengenali market (customer dan user) yang sesuai dengan kebutuhan dan positioning bisnis"
        ]
    },
    "image_url": "https://membership-merintisindonesia.herokuapp.com/images/digital_marketing_101.jpeg",
    "video_url": "https://youtu.be/0V1Y-7wPJSk"
  },
  {
    "title" : "Business Finance 101: How To Build Financial Management in a Startup",
    "description" : {
      "Pembicara" : "Anik Primawati (CFO Maesa Group)",
      "Topik" : [
        "Pengaturan keuangan pribadi dan bisnis",
        "Strategi keuangan bisnis untuk pemula",
        "Menghitung BEP untuk menentukan target pendapatan usaha",
        "Membukukan keuangan usaha",
        "Memilih tools keuangan yang tepat untuk bisnis"
        ]
    },
    "image_url": "https://membership-merintisindonesia.herokuapp.com/images/business_finance_101.jpeg",
    "video_url": "https://youtu.be/dY1JZOcPUbI"
  },
  {
    "title" : "Business Team 101: How To Build Your Powerful Startup Team",
    "description" : {
      "Pembicara" : "Nisrina Akalusyamoktika (Associate Consultant Glints Indonesia)",
      "Topik" : [
        "Peranan dan fungsi dari team startup pemula yang ideal",
        "Kepribadian yang harus dimiliki founder startup saat memulai bisnis dan merekrut team baru",
        "Strategi mengelola hubungan antar team untuk meminimalisir konflik internal",
        "Keterikatan antar berbagai peran team dalam upaya membangun team startup yang ideal dan progresif"
        ]
    },
    "image_url": "https://membership-merintisindonesia.herokuapp.com/images/business_team_101.jpeg",
    "video_url": "https://youtu.be/6YblXDgyMsQ"
  },
  {
    "title" : "Business Pitch 101: How To Create An Outstanding Pitch Deck In a Startup",
    "description" : {
      "Pembicara" : "Hanive Q. Aini (CEO Maantraa)",
      "Topik" : [
        "Apa saja yang harus ada dalam pitch deck",
        "Pentingnya pitch deck dalam pendanaan startup",
        "Apa saja yang harus dipertimbangkan dalam memilih tools pitch deck"
        ]
    },
    "image_url": "https://membership-merintisindonesia.herokuapp.com/images/business_pitch_101.jpeg",
    "video_url": "https://youtu.be/O9DA6Cp3fFs"
  },
  {
    "title" : "Business Brand 101: How To Optimize Your Brand Awareness on Social Media",
    "description" : {
      "Pembicara" : "Hablana Nur Amanah (PR Marketing Communicator di Skillana.id)",
      "Topik" : [
        "Apa itu kesadaran jenama (brand awareness)",
        "Bagaimana memilih tools untuk meningkatkan brand awareness",
        "Bagaimana mengoptimalkan media sosial untuk meningkatkan brand awareness",
        "Cara meningkatkan brand awareness pada pasar dan konsumen"
        ]
    },
    "image_url": "https://membership-merintisindonesia.herokuapp.com/images/business_brand_101.jpeg",
    "video_url": "https://youtu.be/HHpl59LyB3Q"
  },
  {
    "title" : "Business Product 101: Developing Your Product with Innovation",
    "description" : {
      "Pembicara" : "Yacob Nainggolan (Product manager di Stockbit)",
      "Topik" : [
        "Pengertian pengembangan produk",
        "Kapan harus melakukan pengembangan produk",
        "Tahap pengembangan produk",
        "Komersialisasi"
        ]
    },
    "image_url": "https://membership-merintisindonesia.herokuapp.com/images/business_product_101.jpeg",
    "video_url": "https://youtu.be/fHAaQqJPoKo"
  }
]