{
    "id" : "generate UUID",
    "user_id" : 1,
    "status" : "premium",
    "type" : "perintis",
    "reason_join_member": "ingin menjadi lebih bagus lagi",
    "is_paid" : true,
    "created_at" : "2021-08-21T14:04:44+07:00",
    "expired_date" : "2022-08-21T14:04:44+07:00",
    "deleted" : false
}